Owner,Product Name,Category,Description,Image,Order
michelle,Video,Online,"Video is a hugely powerful marketing tool and we'll help you exploit it to grow your business. Short, simple videos can bring new dimension to your marketing, and breathe life into your products and services in a way that no other marketing tool can. Video will ensure you gain increased exposure. If you already have a video we can simply add it to your website feature or arrange for one to be produced for you!",59,-87
michelle,An Evening with,Offline,"Don't miss these great events as they provide a fabulous opportunity for you to mix, mingle and make new business friends! In essence we'll plug you in to all the other best businesses in town. It's like being part of a best business club. There are also opportunities to sponsor these evenings, offering you a unique occasion to promote your business to a captive audience of like-minded business owners. Check out our upcoming events section to find out more.",63,-91
michelle,Call Tracking,Offline,This effective marketing tool tracks phone traffic that comes to you via thebestof marketing. We can assign you with a dedicated number that we use on all the marketing we do for you. When you get calls it simply diverts to your current telephone number. We can then provide monthly reports to demonstrate how effective thebestof has been for your business.,64,-92
michelle,Events,Offline,"Publicise your events by placing them on thebestof events page. You can either add the events yourself through our website, or send them to us so that we can optimise them for search engines before we add them to the site on your behalf. We can even add a photo for you!",60,-88
michelle,Testimonials,Online,"Testimonials are one of the most powerful marketing tools in the world, and they are free! Collect as many of these as you can - there is no limit (the dual-branded testimonial cards will help you do this effectively) and send them to us to add to your website feature. It's a fact that businesses with lots of testimonials get more new leads and enquiries AND it helps position you as clearly one of the best.",50,-99
michelle,Dual Branded Postcards,Offline,"This tremendous marketing tool has been specifically designed to assist you in collecting testimonials from your customers. They are personally branded for you and so your customers don't have to worry about postage, these also come in a reply paid format. Alternatively, they can be handed back to you and we will come and collect them. Your customers will love them, they'll help you to build a valuable testmonial bank quickly and in turn, you'll create great exposure for your business.",51,-98
michelle,Mix and Match,Offline,"Mix and Match is all about connecting you to other Business Members of thebestof. You never know when you'll need a cleaner, a landscape gardener, an accountant or a hairdresser! Being part of thebestof gives you a rich pool of best businesses in town to draw on, all of which you know come recommended. Whatever you need we will be able to connect you with the best in town. And of course we'll connect others to you.",52,-97
michelle,Commercial Photos,Offline,"Commercial photos work so effectively, simply because 'People Buy People'. Every thebestof Business Member gets a photo shoot and we then use these images to promote your business in a fun, relaxed and engaging way. We use these on your feature but they can also be used on Billboards and on our printed material such as door drops further down the line.",53,-96
michelle,Certificates,Offline,These simple and effective personally branded certificates are for you to display prominently in your reception/public area. They provide a way of instantly showing your customers that your business is one of the best in town. They can also be a great talking point and be used to help you gain more business. ,66,-95
michelle,Brand Awareness,Offline,"With thebestof you have the opportunity for great brand exposure. The recognition of being a member of thebestof is a nationally respected brand, that tells your local community that you have been accredited as one of the best local businesses. Display the logo on your website, business premises, windows, vehicles etc. It's great exposure for you and helps position you as one of the best. We will even provide the stickers!",67,-94
michelle,Buy Local,Campaigns,"We go out of our way to support the very best local businesses and we do our upmost to spread the word about how great they are. We also encourage new business potential by raising the awareness of our trusted business members through our 'Buy Local' campaign, ensuring local people spend locally and support our cause. If you would like to support the 'Buy Local' initiative and would like a window sticker then simply contact the team.

",74,-92
michelle,Social Media,Online,"Here at thebestof we are at the vanguard of social media in the UK. Everyday, thousands of local people - your potential customers - are on Twitter, Facebook and Linkedin. So are we and we can support your own social media strategy and get you engaged on these new and very important platforms. If you have something you would like us to tweet about or shout about through our blog or Facebook pages, make sure you let us know and we will be happy to do so - we love spreading the word!",62,-90
michelle,Blog,Online,"If you've got something you want to share with local people get it over to us! We'll optimise it for search engines and place it on our blog. You can send us just about anything, anytime you win an award, get a mention in the paper, take part in a charity event or even if you just have something to say, let us know. Our blog is a powerful way for you to get new customers and raise your profile. Please use it and if you want to be a local blog author simply get in contact!",54,-89
michelle,Mobile Website and App,Online,"More and more people have mobile phones capable of using the internet whilst they are out and about. Our mobile website and App helps the public to find thebestof businesses, special offers and events while they are on the move! They can even download your offers direct from their phone and use these on the spot!",61,-84
michelle,14 Days of Love,Campaigns,"Recognising the 'most loved' businesses is something we do once a year through our highly effective campaign. Our campaign runs for 14 days in February showcasing the talents of our business members locally and also in the National competition. 

We recognise the success of those businesses through recognition on their fetaure and prsent them with a certificate.




",80,-93
michelle,Website feature,Online,"This is your very own page on our website which collectively (with our UK stats) gets over a million visitors a month. It's where we tell the local community what you do and why you have been recommended as one of the best local businesses. We will write a professional Search Engine Optimised feature for you and make sure you are happy with it before putting it live on the site. Your member offers and testimonials can be found on this page and if you have chosen a video, this will be here along with your contact and website details.",58,-83
michelle,Special offers for members,Offline,"These online offers are attached to your website feature and are a powerful tool for you to get new customers. We will guide you on what offers work best for your category but its important they are unique to thebestof so we can monitor their success.We'll then upload them to your feature. Local members of thebestof can print the voucher, so you will know where the business is coming from. We'll help change these regularly to keep them fresh with local people coming back for more.",57,-86
michelle,Door Drops,Offline,"Showcasing you with only a selected number of businesses our printed Door Drops or Voucher Booklets go through the letterboxes of local residents. You supply a unique offer so that we can measure the success of the campaign, but essentially this initiative gets your unique message out to thousands of local homes and in turn lots of new business potential.",76,-82
michelle,QuoteMe,Online,"Quote Me is a great marketing tool within our website. Local people enter the details of the job they want doing, Quote Me then automatically passes the enquiry on to our relevant Business Members. Yet another great way that we can generate new business leads for you.",56,-85
michelle,Billboards,Offline,Our Billboard marketing is a fantastic way of promoting your brand.  You will feature amongst just 2 other best businesess in prime locations locally. Using our commercial photography we can use your face to bring your business to life.,77,-80
michelle,thebestof 'bus',Offline,Our fully branded buses further enhance your reputation as one of thebest locally. You will feature alongside other best businesses and gain coverage daily either through our fully wrapped buses or from our mega rears! ,75,-81
michelle,Our branded vehicles,Offline,Selected members have an opportunity to feature their logo on our branded vehicles to gain further exposure and brand awareness. You may not have your own branded vehicle so this is the next best thing!,79,-79
michelle,thebestof CRM,Online,"Our bespoke Customer Relationship Management System supports you in your business through contact management, email and sms campaigns. This ensures that you are regularly in contact with your customers which  will encourage repeat business.

Not only that our simple and affordable system works as an invaluable tool to sustain the growth of your business database and manages your time.",83,-78
michelle,Our Support,Offline,"At the core of our business is our 'relationship' building with the best local businesses. We work in partnership with all of our Business Members to make sure that we meet your expectations. With our regular phone support and one to one meetings, we ensure that we are doing our 'very best' to provide you with as much support and guidance that you require. The businesses that do well from our proposition are the ones that work with us to maximise the full suite of marketing available. ",78,-75
michelle,Online Banners,Online,"Our 'online' banner slots are effective ways in further enhancing your exposure through our website. There are a number of prime locations on the website with 4 main ones on the hompage including the weather. These are offered on a first come first served basis.  All banners are trackable and link through to your feature, so if there is something special you wish to promote then we can maximise your message to our thousands of daily visitors.",85,-76
michelle,Newsletters,Online,"Our Newsletters are sent directly into the inbox of thousands of local people. We offer 2 types - our Business Newsletter focuses on B2B led articles, features and sponsorship slots, whilst our local newsletter is sent to our local consumers, with the focus on Special Offers. A simple yet effective tool to really reach out to the local community.",84,-77
